 stmbeta <- tidy(tweets_STM_TM, "beta")
 ctmbeta <- tidy(tweets_TMs[["CTM"]], "beta")
 ldaVEMbeta <- tidy(tweets_TMs[["LDA_VEM"]], "beta")
 ldaFixedVEMbeta <- tidy(tweets_TMs[["LDA_fixedVEM"]], "beta")
 ldaGibbsbeta <- tidy(tweets_TMs[["LDA_Gibbs"]], "beta")
 
 stmbeta_df<- as.data.frame(stmbeta)
> stmbeta_df <- stmbeta_df[order(stmbeta_df$beta),]
> stmbeta_df <- stmbeta_df[order(-stmbeta_df$beta),]
> stm_freqWords_perTopic <- stmbeta_df %>%
+ group_by(topic) %>%
+ slice_head(n = 5) %>%
+ ungroup()
> stm_freqWords_perTopic
# A tibble: 150 x 3
   topic term        beta
   <int> <chr>      <dbl>
 1     1 inacredit 0.0593
 2     1 bizarr    0.0216
 3     1 rind      0.0211
 4     1 resum     0.0210
 5     1 surreal   0.0209
 6     2 céu       0.0707
 7     2 papa      0.0335
 8     2 fum       0.0283
 9     2 maravilh  0.0259
10     2 mentir    0.0213
# … with 140 more rows
…
